hw5
…
Find the daily sales liquor sales in Ames in 2019. Summarize the number of sales, volume of liquor sold, and amount of money spent.

df_2019 <- df_new %>%
  filter(Year == 2019) 
df_sales <- df_2019 %>%
  group_by(Day, Month) %>%
  summarize(Sales = sum(`Bottles Sold`), Vol = sum(`Volume Sold (Gallons)`), amount = sum(`Sale (Dollars)`))
df_sales

## # A tibble: 157 x 5
## # Groups:   Day [31]
##    Day   Month Sales     Vol   amount
##    <chr> <chr> <dbl>   <dbl>    <dbl>
##  1 01    02     1225  333.    19438. 
##  2 01    03     1655  410.    22531. 
##  3 01    05     1715  558.    31963. 
##  4 01    08     3347  717.    44361. 
##  5 01    10      255   49.0    3526. 
##  6 01    11      623  172.     6512. 
##  7 02    05     9468 2261.   132643. 
##  8 02    07        1    0.26     18.8
##  9 02    08      431   65.6    4046. 
## 10 02    10     4912 1131.    65284. 
## # ... with 147 more rows
…
